2024-03-07 21-34-08-209 - Off.webp	01521-dated-copper-earrings-right.webp
2024-03-07 21-34-18-075 - Off.webp	01522-dated-fang-earrings-right.webp
2024-03-07 21-34-22-841 - Off.webp	01524-dated-silver-earrings-right.webp
2024-03-07 21-34-25-041 - Off.webp	01525-dated-sunstone-earrings-right.webp
2024-03-07 21-34-27-375 - Off.webp	01526-dated-lapis-lazuli-earrings-right.webp
2024-03-07 21-34-29-641 - Off.webp	01527-dated-sphene-earrings-right.webp
2024-03-07 21-34-32-008 - Off.webp	01528-dated-malachite-earrings-right.webp
2024-03-07 21-34-34-308 - Off.webp	01529-dated-fluorite-earrings-right.webp
2024-03-07 21-34-36-674 - Off.webp	01530-dated-danburite-earrings-right.webp
2024-03-07 21-34-38-924 - Off.webp	01531-dated-pearl-earrings-right.webp
2024-03-07 21-34-41-210 - Off.webp	01532-dated-black-pearl-earrings-right.webp
2024-03-07 21-34-45-824 - Off.webp	01534-dated-garnet-earrings-right.webp
2024-03-07 21-34-47-891 - Off.webp	01535-dated-aquamarine-earrings-right.webp
2024-03-07 21-34-50-291 - Off.webp	01536-dated-heliodor-earrings-right.webp
2024-03-07 21-34-52-724 - Off.webp	01537-dated-peridot-earrings-right.webp
2024-03-07 21-34-55-008 - Off.webp	01538-dated-amethyst-earrings-right.webp
2024-03-07 21-34-57-491 - Off.webp	01539-dated-goshenite-earrings-right.webp
2024-03-07 21-34-59-658 - Off.webp	04195-tremor-earrings-of-fending-right.webp
2024-03-07 21-35-09-058 - Off.webp	04199-moonlet-right.webp
2024-03-07 21-35-11-460 - Off.webp	04200-peach-blossoms-right.webp
2024-03-07 21-35-13-558 - Off.webp	04201-moogle-earrings-right.webp
2024-03-07 21-35-15-841 - Off.webp	04202-cactuar-earring-right.webp
2024-03-07 21-35-18-293 - Off.webp	04203-bomb-earrings-right.webp
2024-03-07 21-35-27-692 - Off.webp	04207-plundered-earrings-right.webp
2024-03-07 21-35-29-975 - Off.webp	04208-manderville-earrings-right.webp
2024-03-07 21-37-04-842 - Off.webp	04250-mages-earrings-right.webp
2024-03-07 21-37-13-758 - Off.webp	04254-red-coral-earrings-right.webp
2024-03-07 21-37-20-675 - Off.webp	04257-blessed-earrings-right.webp
2024-03-07 21-37-59-942 - Off.webp	04274-crimson-standard-earrings-right.webp
2024-03-07 21-38-02-242 - Off.webp	04275-tipping-scales-earrings-right.webp
2024-03-07 21-38-04-625 - Off.webp	04276-lily-and-serpent-earrings-right.webp
2024-03-07 21-38-23-009 - Off.webp	04284-rose-gold-earrings-right.webp
2024-03-07 21-38-30-044 - Off.webp	04287-white-ravens-right.webp
2024-03-07 21-38-32-309 - Off.webp	04288-pixie-earrings-right.webp
2024-03-07 21-38-34-576 - Off.webp	04289-allagan-earrings-of-striking-right.webp
2024-03-07 21-38-36-926 - Off.webp	04290-allagan-earrings-of-aiming-right.webp
2024-03-07 21-38-43-792 - Off.webp	04293-allagan-earrings-of-maiming-right.webp
2024-03-07 21-38-57-409 - Off.webp	06113-slime-earrings-right.webp
2024-03-07 21-40-00-310 - Off.webp	07169-high-allagan-earrings-of-fending-right.webp
2024-03-07 21-40-05-059 - Off.webp	07195-high-allagan-earrings-of-aiming-right.webp
2024-03-07 21-40-09-759 - Off.webp	07215-high-allagan-earrings-of-casting-right.webp
2024-03-07 21-41-17-576 - Off.webp	08565-goobbue-earring-right.webp
2024-03-07 21-41-19-810 - Off.webp	08566-dodo-earring-right.webp
2024-03-07 21-41-33-709 - Off.webp	08715-pumpkin-earrings-right.webp
2024-03-07 21-41-47-476 - Off.webp	08950-dreadwyrm-earring-of-fending-right.webp
2024-03-07 21-41-59-126 - Off.webp	09033-platinum-earrings-of-fending-right.webp
2024-03-07 21-42-01-510 - Off.webp	09049-platinum-earrings-of-slaying-right.webp
2024-03-07 21-42-03-726 - Off.webp	09059-platinum-earrings-of-aiming-right.webp
2024-03-07 21-42-06-143 - Off.webp	09069-platinum-earrings-of-healing-right.webp
2024-03-07 21-42-08-276 - Off.webp	09079-platinum-earrings-of-casting-right.webp
2024-03-07 21-42-22-360 - Off.webp	09293-the-emperors-new-earrings-right.webp
2024-03-07 21-42-24-510 - Off.webp	09318-bluebird-earring-right.webp
2024-03-07 21-42-26-860 - Off.webp	09319-coblyn-earring-right.webp
2024-03-07 21-42-29-077 - Off.webp	09986-varlets-earrings-right.webp
2024-03-07 21-42-40-743 - Off.webp	10067-egg-earrings-right.webp
2024-03-07 21-42-43-127 - Off.webp	10068-midnight-egg-earrings-right.webp
2024-03-07 21-42-45-343 - Off.webp	10069-brilliant-egg-earrings-right.webp
2024-03-07 21-42-47-777 - Off.webp	10070-vibrant-egg-earrings-right.webp
2024-03-07 21-42-50-110 - Off.webp	10331-baron-earrings-right.webp
2024-03-07 21-42-52-460 - Off.webp	10976-mythrite-earrings-of-fending-right.webp
2024-03-07 21-42-54-760 - Off.webp	10977-mythrite-earblades-of-fending-right.webp
2024-03-07 21-42-57-043 - Off.webp	10978-hardsilver-earrings-of-fending-right.webp
2024-03-07 21-42-59-477 - Off.webp	10979-opal-earrings-of-fending-right.webp
2024-03-07 21-43-01-743 - Off.webp	10980-aurum-regis-earrings-of-fending-right.webp
2024-03-07 21-43-04-060 - Off.webp	10981-chrysolite-earrings-of-fending-right.webp
2024-03-07 21-44-03-077 - Off.webp	11490-prototype-gordian-earrings-of-fending-right.webp
2024-03-07 21-44-26-627 - Off.webp	11642-yasha-earring-of-fending-right.webp
2024-03-07 21-44-50-027 - Off.webp	11745-ardent-earrings-of-fending-right.webp
2024-03-07 21-45-13-429 - Off.webp	12017-yeti-fang-earrings-right.webp
2024-03-07 21-45-15-744 - Off.webp	12018-dragon-fang-earrings-right.webp
2024-03-07 21-45-18-093 - Off.webp	12019-aurum-regis-earrings-of-crafting-right.webp
2024-03-07 21-45-20-277 - Off.webp	12029-mythrite-earrings-of-gathering-right.webp
2024-03-07 21-45-22-577 - Off.webp	12030-hardsilver-earrings-of-gathering-right.webp
2024-03-07 21-45-24-844 - Off.webp	12031-aurum-regis-earrings-of-gathering-right.webp
2024-03-07 21-45-27-228 - Off.webp	12338-battleliege-earrings-of-fending-right.webp
2024-03-07 21-45-38-778 - Off.webp	12358-ishgardian-knights-earrings-right.webp
2024-03-07 21-46-01-478 - Off.webp	12398-orthodox-earrings-of-fending-right.webp
2024-03-07 21-46-47-795 - Off.webp	12985-behemoth-earring-right.webp
2024-03-07 21-46-50-044 - Off.webp	12986-qiqirn-earring-right.webp
2024-03-07 21-46-52-277 - Off.webp	13204-earrings-of-the-defiant-duelist-right.webp
2024-03-07 21-47-03-827 - Off.webp	13299-platinum-paramours-earrings-right.webp
2024-03-07 21-47-06-212 - Off.webp	13302-eikon-iron-earring-of-fending-right.webp
2024-03-07 21-47-17-611 - Off.webp	13329-demon-brick-earring-right.webp
2024-03-07 21-47-54-778 - Off.webp	13568-paramours-earrings-right.webp
2024-03-07 21-48-01-761 - Off.webp	14368-primal-earrings-of-fending-right.webp
2024-03-07 21-48-04-028 - Off.webp	14369-primal-earrings-of-slaying-right.webp
2024-03-07 21-48-06-428 - Off.webp	14370-primal-earrings-of-aiming-right.webp
2024-03-07 21-48-08-695 - Off.webp	14371-primal-earrings-of-healing-right.webp
2024-03-07 21-48-25-011 - Off.webp	14554-prototype-midan-earrings-of-fending-right.webp
2024-03-07 21-48-48-062 - Off.webp	14693-dravanian-earrings-of-fending-right.webp
2024-03-07 21-48-59-678 - Off.webp	14811-the-twelves-earrings-of-fending-right.webp
2024-03-07 21-49-13-311 - Off.webp	15284-diamond-lone-wolf-earrings-right.webp
2024-03-07 21-49-15-561 - Off.webp	15288-platinum-lone-wolf-earrings-right.webp
2024-03-07 21-49-17-828 - Off.webp	15292-gold-lone-wolf-earrings-right.webp
2024-03-07 21-49-20-178 - Off.webp	15296-silver-lone-wolf-earrings-right.webp
2024-03-07 21-49-22-428 - Off.webp	15300-bronze-lone-wolf-earrings-right.webp
2024-03-07 21-49-24-678 - Off.webp	15402-berserkers-earrings-right.webp
2024-03-07 21-49-36-011 - Off.webp	15526-ironworks-earring-of-gathering-right.webp
2024-03-07 21-49-56-778 - Off.webp	15936-hatchling-earring-right.webp
2024-03-07 21-49-59-045 - Off.webp	16039-ala-mhigan-earrings-right.webp
2024-03-07 21-50-01-395 - Off.webp	16166-firecrest-earring-right.webp
2024-03-07 21-50-03-728 - Off.webp	16167-glass-pumpkin-earring-right.webp
2024-03-07 21-50-40-445 - Off.webp	16445-prototype-alexandrian-earrings-of-fending-right.webp
2024-03-07 21-51-03-628 - Off.webp	16683-scintillant-earring-of-fending-right.webp
2024-03-07 21-51-27-279 - Off.webp	17140-makai-earring-of-fending-right.webp
2024-03-07 21-51-50-329 - Off.webp	17428-filibusters-earring-of-fending-right.webp
2024-03-07 21-52-01-813 - Off.webp	17495-paissa-earring-right.webp
2024-03-07 21-52-04-112 - Off.webp	17503-proto-ultima-earrings-of-fending-right.webp
2024-03-07 21-52-15-895 - Off.webp	17663-lone-hellhound-earring-right.webp
2024-03-07 21-52-18-279 - Off.webp	17664-pack-hellhound-earring-right.webp
2024-03-07 21-52-20-595 - Off.webp	17671-lone-faehound-earring-right.webp
2024-03-07 21-52-23-013 - Off.webp	17672-pack-faehound-earring-right.webp
2024-03-07 21-52-36-612 - Off.webp	18169-ghost-barque-earrings-of-fending-right.webp
2024-03-07 21-52-48-046 - Off.webp	18247-koppranickel-earrings-of-fending-right.webp
2024-03-07 21-53-11-414 - Off.webp	18403-star-spinel-earrings-of-fending-right.webp
2024-03-07 21-53-34-412 - Off.webp	18559-azurite-earrings-of-fending-right.webp
2024-03-07 21-53-46-029 - Off.webp	18637-yanxian-earring-of-fending-right.webp
2024-03-07 21-54-09-462 - Off.webp	18793-xenobian-paladins-earrings-right.webp
2024-03-07 21-54-21-280 - Off.webp	18871-arhat-earring-of-fending-right.webp
2024-03-07 21-54-44-546 - Off.webp	19027-palladium-earring-of-fending-right.webp
2024-03-07 21-55-07-446 - Off.webp	19261-lost-allagan-earrings-of-fending-right.webp
2024-03-07 21-55-31-013 - Off.webp	19417-genji-earrings-of-fending-right.webp
2024-03-07 21-55-54-013 - Off.webp	19728-larch-earrings-right.webp
2024-03-07 21-55-56-296 - Off.webp	19733-gyuki-leather-earrings-right.webp
2024-03-07 21-55-58-529 - Off.webp	19738-persimmon-earrings-right.webp
2024-03-07 21-56-00-913 - Off.webp	19743-marid-leather-earrings-right.webp
2024-03-07 21-56-03-179 - Off.webp	19748-zelkova-earrings-right.webp
2024-03-07 21-56-05-547 - Off.webp	19753-gazelleskin-earrings-right.webp
2024-03-07 21-56-07-896 - Off.webp	19787-lakshmis-earrings-of-fending-right.webp
2024-03-07 21-56-19-463 - Off.webp	20861-skallic-earring-of-fending-right.webp
2024-03-07 21-56-30-698 - Off.webp	21033-emerald-carbuncle-earring-right.webp
2024-03-07 21-56-33-013 - Off.webp	21034-topaz-carbuncle-earring-right.webp
2024-03-07 21-56-35-463 - Off.webp	21306-scion-liberators-earrings-right.webp
2024-03-07 21-56-37-830 - Off.webp	21379-ryumyaku-earring-of-fending-right.webp
2024-03-07 21-57-00-780 - Off.webp	21551-diamond-earring-of-fending-right.webp
2024-03-07 21-57-46-196 - Off.webp	22353-eversharp-earring-right.webp
2024-03-07 21-58-04-563 - Off.webp	22973-cassie-earring-right.webp
2024-03-07 21-58-06-915 - Off.webp	22993-empyrean-earring-right.webp
2024-03-07 21-58-25-530 - Off.webp	23452-scaevan-ear-cuff-of-fending-right.webp
2024-03-07 21-58-48-730 - Off.webp	23624-omega-ear-cuff-of-fending-right.webp
2024-03-07 21-59-23-147 - Off.webp	23826-rakshasa-earring-of-fending-right.webp
2024-03-07 21-59-46-381 - Off.webp	24589-aetheryte-earring-right.webp
2024-03-07 21-59-48-580 - Off.webp	24612-namazu-earring-right.webp
2024-03-07 21-59-50-814 - Off.webp	24614-mameshiba-earring-right.webp
2024-03-07 22-00-04-415 - Off.webp	25448-ronkan-earrings-of-fending-right.webp
2024-03-07 22-00-16-131 - Off.webp	25528-deepshadow-earring-of-fending-right.webp
2024-03-07 22-00-39-597 - Off.webp	25688-hematite-earrings-of-fending-right.webp
2024-03-07 22-00-51-131 - Off.webp	25768-lakeland-earring-of-fending-right.webp
2024-03-07 22-01-02-881 - Off.webp	25848-diaspore-earrings-of-fending-right.webp
2024-03-07 22-01-14-398 - Off.webp	25928-voeburtite-earring-of-fending-right.webp
2024-03-07 22-01-25-781 - Off.webp	26008-white-ash-earring-of-fending-right.webp
2024-03-07 22-01-37-431 - Off.webp	26088-ravel-keepers-earring-of-fending-right.webp
2024-03-07 22-01-48-598 - Off.webp	26168-triplite-earrings-of-fending-right.webp
2024-03-07 22-02-00-399 - Off.webp	26248-nabaath-earrings-of-fending-right.webp
2024-03-07 22-02-12-081 - Off.webp	26328-petalite-earrings-of-fending-right.webp
2024-03-07 22-02-23-882 - Off.webp	26408-the-forgivens-earrings-of-fending-right.webp
2024-03-07 22-02-35-365 - Off.webp	26488-facet-earrings-of-fending-right.webp
2024-03-07 22-02-46-882 - Off.webp	26915-amaurotine-earrings-of-fending-right.webp
2024-03-07 22-02-58-649 - Off.webp	26995-edengrace-earring-of-fending-right.webp
2024-03-07 22-03-21-465 - Off.webp	27202-white-oak-earrings-right.webp
2024-03-07 22-03-23-898 - Off.webp	27207-smilodonskin-earrings-right.webp
2024-03-07 22-03-26-216 - Off.webp	27212-manasilver-ear-cuffs-right.webp
2024-03-07 22-03-28-465 - Off.webp	27217-white-ash-earrings-right.webp
2024-03-07 22-03-30-748 - Off.webp	27222-dwarven-mythril-ear-cuffs-right.webp
2024-03-07 22-03-33-032 - Off.webp	27227-lignum-vitae-earrings-right.webp
2024-03-07 22-03-35-365 - Off.webp	27614-immaculate-ear-cuffs-of-fending-right.webp
2024-03-07 22-04-14-533 - Off.webp	28493-whalaqee-earrings-right.webp
2024-03-07 22-04-16-799 - Off.webp	29097-edenchoir-earrings-of-fending-right.webp
2024-03-07 22-04-39-600 - Off.webp	29239-crystarium-earrings-of-fending-right.webp
2024-03-07 22-05-02-348 - Off.webp	29381-anamnesis-earrings-of-fending-right.webp
2024-03-07 22-05-13-899 - Off.webp	29464-neo-ishgardian-earring-of-fending-right.webp
2024-03-07 22-05-25-382 - Off.webp	30472-aesthetes-ear-cuffs-of-crafting-right.webp
2024-03-07 22-05-27-816 - Off.webp	30477-aesthetes-earrings-of-gathering-right.webp
2024-03-07 22-05-41-715 - Off.webp	30658-shadowless-earrings-of-fending-right.webp
2024-03-07 22-05-53-349 - Off.webp	31393-bozjan-earring-right.webp
2024-03-07 22-05-55-782 - Off.webp	31804-handsaints-earrings-right.webp
2024-03-07 22-06-00-582 - Off.webp	31873-exarchic-earrings-of-fending-right.webp
2024-03-07 22-06-12-432 - Off.webp	32336-edenmorn-earrings-of-fending-right.webp
2024-03-07 22-06-35-232 - Off.webp	32478-cryptlurkers-earring-of-fending-right.webp
2024-03-07 22-06-58-299 - Off.webp	32620-heirloom-earring-of-fending-right.webp
2024-03-07 22-07-10-116 - Off.webp	32640-mirage-earring-right.webp
2024-03-07 22-07-12-399 - Off.webp	33028-red-carnation-earring-right.webp
2024-03-07 22-07-14-816 - Off.webp	33029-blue-carnation-earring-right.webp
2024-03-07 22-07-17-016 - Off.webp	33030-yellow-carnation-earring-right.webp
2024-03-07 22-07-19-268 - Off.webp	33031-green-carnation-earring-right.webp
2024-03-07 22-07-21-582 - Off.webp	33032-orange-carnation-earring-right.webp
2024-03-07 22-07-23-866 - Off.webp	33033-purple-carnation-earring-right.webp
2024-03-07 22-07-26-166 - Off.webp	33034-white-carnation-earring-right.webp
2024-03-07 22-07-28-500 - Off.webp	33035-black-carnation-earring-right.webp
2024-03-07 22-07-30-866 - Off.webp	33036-rainbow-carnation-earring-right.webp
2024-03-07 22-07-44-816 - Off.webp	33542-paglthan-earring-of-fending-right.webp
2024-03-07 22-07-56-416 - Off.webp	33648-menphinas-earring-right.webp
2024-03-07 22-07-58-683 - Off.webp	33649-fat-cat-earrings-right.webp
2024-03-07 22-08-00-866 - Off.webp	33651-spriggan-earrings-right.webp
2024-03-07 22-08-03-216 - Off.webp	33874-red-moth-orchid-corsage-right.webp
2024-03-07 22-08-05-649 - Off.webp	33875-blue-moth-orchid-corsage-right.webp
2024-03-07 22-08-07-832 - Off.webp	33876-yellow-moth-orchid-corsage-right.webp
2024-03-07 22-08-10-182 - Off.webp	33877-green-moth-orchid-corsage-right.webp
2024-03-07 22-08-12-516 - Off.webp	33878-orange-moth-orchid-corsage-right.webp
2024-03-07 22-08-14-766 - Off.webp	33879-purple-moth-orchid-corsage-right.webp
2024-03-07 22-08-17-016 - Off.webp	33880-white-moth-orchid-corsage-right.webp
2024-03-07 22-08-19-216 - Off.webp	33881-black-moth-orchid-corsage-right.webp
2024-03-07 22-08-21-649 - Off.webp	33882-rainbow-moth-orchid-corsage-right.webp
2024-03-07 22-08-23-916 - Off.webp	34135-ametrine-earrings-of-fending-right.webp
2024-03-07 22-08-35-699 - Off.webp	34210-manusya-earrings-of-fending-right.webp
2024-03-07 22-08-46-899 - Off.webp	34285-palm-ear-cuffs-of-fending-right.webp
2024-03-07 22-08-58-599 - Off.webp	34360-imperial-earring-of-fending-right.webp
2024-03-07 22-09-10-049 - Off.webp	34435-phrygian-ear-cuffs-of-fending-right.webp
2024-03-07 22-09-21-433 - Off.webp	34510-palaka-earrings-of-fending-right.webp
2024-03-07 22-09-33-150 - Off.webp	34585-blue-zircon-earrings-of-fending-right.webp
2024-03-07 22-09-44-716 - Off.webp	34660-ktiseos-earring-of-fending-right.webp
2024-03-07 22-09-56-233 - Off.webp	34735-star-quartz-earrings-of-fending-right.webp
2024-03-07 22-10-07-950 - Off.webp	34810-etheirys-earring-of-fending-right.webp
2024-03-07 22-10-19-399 - Off.webp	34830-the-last-earring-of-fending-right.webp
2024-03-07 22-10-30-967 - Off.webp	34905-moonward-earring-of-fending-right.webp
2024-03-07 22-10-42-250 - Off.webp	34945-eternal-dark-earrings-of-fending-right.webp
2024-03-07 22-10-53-883 - Off.webp	35000-limbo-earrings-of-fending-right.webp
2024-03-07 22-11-05-433 - Off.webp	35075-classical-earrings-of-fending-right.webp
2024-03-07 22-11-17-217 - Off.webp	35150-radiants-earrings-of-fending-right.webp
2024-03-07 22-11-52-050 - Off.webp	35444-ametrine-ear-cuffs-of-crafting-right.webp
2024-03-07 22-11-54-334 - Off.webp	35448-horse-chestnut-earrings-of-gathering-right.webp
2024-03-07 22-11-56-684 - Off.webp	35452-ironwood-earrings-of-crafting-right.webp
2024-03-07 22-11-59-033 - Off.webp	35456-kumbhiraskin-earrings-of-gathering-right.webp
2024-03-07 22-12-01-300 - Off.webp	35460-integral-earrings-of-crafting-right.webp
2024-03-07 22-12-03-700 - Off.webp	35464-ophiotauroskin-earrings-of-gathering-right.webp
2024-03-07 22-12-06-102 - Off.webp	35991-red-triteleia-earring-right.webp
2024-03-07 22-12-08-400 - Off.webp	35992-blue-triteleia-earring-right.webp
2024-03-07 22-12-10-800 - Off.webp	35993-yellow-triteleia-earring-right.webp
2024-03-07 22-12-13-218 - Off.webp	35994-green-triteleia-earring-right.webp
2024-03-07 22-12-15-450 - Off.webp	35995-orange-triteleia-earring-right.webp
2024-03-07 22-12-17-917 - Off.webp	35996-purple-triteleia-earring-right.webp
2024-03-07 22-12-20-383 - Off.webp	35997-white-triteleia-earring-right.webp
2024-03-07 22-12-22-817 - Off.webp	35998-black-triteleia-earring-right.webp
2024-03-07 22-12-25-217 - Off.webp	35999-rainbow-triteleia-earring-right.webp
2024-03-07 22-12-27-567 - Off.webp	36338-omega-m-ear-cuffs-right.webp
2024-03-07 22-12-29-900 - Off.webp	36339-omega-f-earrings-right.webp
2024-03-07 22-12-44-101 - Off.webp	37081-wayfarers-earcuff-right.webp
2024-03-07 22-12-46-534 - Off.webp	37208-darbar-earrings-of-fending-right.webp
2024-03-07 22-12-58-100 - Off.webp	37797-rinascita-earring-of-fending-right.webp
2024-03-07 22-13-09-834 - Off.webp	37911-purgatory-earrings-of-fending-right.webp
2024-03-07 22-13-21-517 - Off.webp	37986-lunar-envoys-earring-of-fending-right.webp
2024-03-07 22-13-56-784 - Off.webp	38191-troian-earrings-of-fending-right.webp
2024-03-07 22-14-08-434 - Off.webp	38559-sildihn-earring-right.webp
2024-03-07 22-14-10-717 - Off.webp	38691-silkie-earring-right.webp
2024-03-07 22-14-13-001 - Off.webp	38921-indagators-earrings-of-crafting-right.webp
2024-03-07 22-14-15-401 - Off.webp	38925-indagators-earrings-of-gathering-right.webp
2024-03-07 22-14-17-617 - Off.webp	38992-manalis-earrings-of-fending-right.webp
2024-03-07 22-14-40-701 - Off.webp	39325-corgi-earring-right.webp
2024-03-07 22-14-42-834 - Off.webp	39327-loporrit-earrings-right.webp
2024-03-07 22-14-45-136 - Off.webp	39328-porxie-earrings-right.webp
2024-03-07 22-14-47-684 - Off.webp	39505-enaretos-earrings-right.webp
2024-03-07 22-14-49-984 - Off.webp	39685-diadochos-earring-of-fending-right.webp
2024-03-07 22-15-01-584 - Off.webp	39856-artful-afflatus-earrings-right.webp
2024-03-07 22-15-06-152 - Off.webp	39995-anabaseios-earring-of-fending-right.webp
2024-03-07 22-15-17-784 - Off.webp	40070-credendum-earrings-of-fending-right.webp
2024-03-07 22-15-52-184 - Off.webp	40275-distance-earring-of-fending-right.webp
2024-03-07 22-16-03-784 - Off.webp	40351-phantasmal-sardine-earring-right.webp
2024-03-07 22-16-06-018 - Off.webp	40800-voidmoon-ear-cuffs-of-fending-right.webp
2024-03-07 22-16-29-484 - Off.webp	41503-donut-earring-right.webp
2024-03-07 22-16-31-801 - Off.webp	41504-cookie-earring-right.webp
2024-03-07 22-16-34-134 - Off.webp	41505-buuz-earring-right.webp
2024-03-07 22-16-36-435 - Off.webp	41506-coffee-cup-earring-right.webp
2024-03-07 22-16-38-751 - Off.webp	41507-faux-commander-earring-right.webp