2024-03-08 16-50-58-852 - Off.webp	01521-dated-copper-earrings-front.webp
2024-03-08 16-51-56-185 - Off.webp	01522-dated-fang-earrings-front.webp
2024-03-08 16-52-09-852 - Off.webp	01524-dated-silver-earrings-front.webp
2024-03-08 16-52-16-519 - Off.webp	01525-dated-sunstone-earrings-front.webp
2024-03-08 16-52-23-368 - Off.webp	01526-dated-lapis-lazuli-earrings-front.webp
2024-03-08 16-52-30-269 - Off.webp	01527-dated-sphene-earrings-front.webp
2024-03-08 16-52-36-969 - Off.webp	01528-dated-malachite-earrings-front.webp
2024-03-08 16-52-43-935 - Off.webp	01529-dated-fluorite-earrings-front.webp
2024-03-08 16-52-50-718 - Off.webp	01530-dated-danburite-earrings-front.webp
2024-03-08 16-52-57-620 - Off.webp	01531-dated-pearl-earrings-front.webp
2024-03-08 16-53-04-718 - Off.webp	01532-dated-black-pearl-earrings-front.webp
2024-03-08 16-53-18-585 - Off.webp	01534-dated-garnet-earrings-front.webp
2024-03-08 16-53-25-335 - Off.webp	01535-dated-aquamarine-earrings-front.webp
2024-03-08 16-53-32-102 - Off.webp	01536-dated-heliodor-earrings-front.webp
2024-03-08 16-53-39-135 - Off.webp	01537-dated-peridot-earrings-front.webp
2024-03-08 16-53-46-068 - Off.webp	01538-dated-amethyst-earrings-front.webp
2024-03-08 16-53-52-935 - Off.webp	01539-dated-goshenite-earrings-front.webp
2024-03-08 16-53-59-903 - Off.webp	04195-tremor-earrings-of-fending-front.webp
2024-03-08 16-54-27-519 - Off.webp	04199-moonlet-front.webp
2024-03-08 16-54-34-669 - Off.webp	04200-peach-blossoms-front.webp
2024-03-08 16-54-41-552 - Off.webp	04201-moogle-earrings-front.webp
2024-03-08 16-54-48-520 - Off.webp	04202-cactuar-earring-front.webp
2024-03-08 16-54-55-419 - Off.webp	04203-bomb-earrings-front.webp
2024-03-08 16-55-23-303 - Off.webp	04207-plundered-earrings-front.webp
2024-03-08 16-55-30-253 - Off.webp	04208-manderville-earrings-front.webp
2024-03-08 17-00-13-339 - Off.webp	04250-mages-earrings-front.webp
2024-03-08 17-00-41-053 - Off.webp	04254-red-coral-earrings-front.webp
2024-03-08 17-01-01-770 - Off.webp	04257-blessed-earrings-front.webp
2024-03-08 17-02-58-671 - Off.webp	04274-crimson-standard-earrings-front.webp
2024-03-08 17-03-05-621 - Off.webp	04275-tipping-scales-earrings-front.webp
2024-03-08 17-03-12-688 - Off.webp	04276-lily-and-serpent-earrings-front.webp
2024-03-08 17-04-07-939 - Off.webp	04284-rose-gold-earrings-front.webp
2024-03-08 17-04-28-755 - Off.webp	04287-white-ravens-front.webp
2024-03-08 17-04-35-422 - Off.webp	04288-pixie-earrings-front.webp
2024-03-08 17-04-42-172 - Off.webp	04289-allagan-earrings-of-striking-front.webp
2024-03-08 17-04-49-005 - Off.webp	04290-allagan-earrings-of-aiming-front.webp
2024-03-08 17-05-09-956 - Off.webp	04293-allagan-earrings-of-maiming-front.webp
2024-03-08 17-05-51-955 - Off.webp	06113-slime-earrings-front.webp
2024-03-08 17-08-58-406 - Off.webp	07169-high-allagan-earrings-of-fending-front.webp
2024-03-08 17-09-12-256 - Off.webp	07195-high-allagan-earrings-of-aiming-front.webp
2024-03-08 17-09-26-172 - Off.webp	07215-high-allagan-earrings-of-casting-front.webp
2024-03-08 17-12-45-757 - Off.webp	08565-goobbue-earring-front.webp
2024-03-08 17-12-52-707 - Off.webp	08566-dodo-earring-front.webp
2024-03-08 17-13-33-923 - Off.webp	08715-pumpkin-earrings-front.webp
2024-03-08 17-14-15-374 - Off.webp	08950-dreadwyrm-earring-of-fending-front.webp
2024-03-08 17-14-50-207 - Off.webp	09033-platinum-earrings-of-fending-front.webp
2024-03-08 17-14-57-290 - Off.webp	09049-platinum-earrings-of-slaying-front.webp
2024-03-08 17-15-03-990 - Off.webp	09059-platinum-earrings-of-aiming-front.webp
2024-03-08 17-15-10-774 - Off.webp	09069-platinum-earrings-of-healing-front.webp
2024-03-08 17-15-17-757 - Off.webp	09079-platinum-earrings-of-casting-front.webp
2024-03-08 17-15-59-190 - Off.webp	09293-the-emperors-new-earrings-front.webp
2024-03-08 17-16-06-241 - Off.webp	09318-bluebird-earring-front.webp
2024-03-08 17-16-13-209 - Off.webp	09319-coblyn-earring-front.webp
2024-03-08 17-16-20-174 - Off.webp	09986-varlets-earrings-front.webp
2024-03-08 17-16-54-574 - Off.webp	10067-egg-earrings-front.webp
2024-03-08 17-17-01-524 - Off.webp	10068-midnight-egg-earrings-front.webp
2024-03-08 17-17-08-407 - Off.webp	10069-brilliant-egg-earrings-front.webp
2024-03-08 17-17-15-474 - Off.webp	10070-vibrant-egg-earrings-front.webp
2024-03-08 17-17-22-308 - Off.webp	10331-baron-earrings-front.webp
2024-03-08 17-17-29-008 - Off.webp	10976-mythrite-earrings-of-fending-front.webp
2024-03-08 17-17-36-108 - Off.webp	10977-mythrite-earblades-of-fending-front.webp
2024-03-08 17-17-42-908 - Off.webp	10978-hardsilver-earrings-of-fending-front.webp
2024-03-08 17-17-49-808 - Off.webp	10979-opal-earrings-of-fending-front.webp
2024-03-08 17-17-56-658 - Off.webp	10980-aurum-regis-earrings-of-fending-front.webp
2024-03-08 17-18-03-858 - Off.webp	10981-chrysolite-earrings-of-fending-front.webp
2024-03-08 17-20-56-575 - Off.webp	11490-prototype-gordian-earrings-of-fending-front.webp
2024-03-08 17-22-06-142 - Off.webp	11642-yasha-earring-of-fending-front.webp
2024-03-08 17-23-15-226 - Off.webp	11745-ardent-earrings-of-fending-front.webp
2024-03-08 17-24-24-409 - Off.webp	12017-yeti-fang-earrings-front.webp
2024-03-08 17-24-31-310 - Off.webp	12018-dragon-fang-earrings-front.webp
2024-03-08 17-24-38-361 - Off.webp	12019-aurum-regis-earrings-of-crafting-front.webp
2024-03-08 17-24-45-276 - Off.webp	12029-mythrite-earrings-of-gathering-front.webp
2024-03-08 17-24-52-126 - Off.webp	12030-hardsilver-earrings-of-gathering-front.webp
2024-03-08 17-24-59-010 - Off.webp	12031-aurum-regis-earrings-of-gathering-front.webp
2024-03-08 17-25-05-827 - Off.webp	12338-battleliege-earrings-of-fending-front.webp
2024-03-08 17-25-40-493 - Off.webp	12358-ishgardian-knights-earrings-front.webp
2024-03-08 17-26-49-893 - Off.webp	12398-orthodox-earrings-of-fending-front.webp
2024-03-08 17-29-08-928 - Off.webp	12985-behemoth-earring-front.webp
2024-03-08 17-29-15-694 - Off.webp	12986-qiqirn-earring-front.webp
2024-03-08 17-29-22-544 - Off.webp	13204-earrings-of-the-defiant-duelist-front.webp
2024-03-08 17-29-57-344 - Off.webp	13299-platinum-paramours-earrings-front.webp
2024-03-08 17-30-04-111 - Off.webp	13302-eikon-iron-earring-of-fending-front.webp
2024-03-08 17-30-39-027 - Off.webp	13329-demon-brick-earring-front.webp
2024-03-08 17-32-30-061 - Off.webp	13568-paramours-earrings-front.webp
2024-03-08 17-32-51-012 - Off.webp	14368-primal-earrings-of-fending-front.webp
2024-03-08 17-32-58-062 - Off.webp	14369-primal-earrings-of-slaying-front.webp
2024-03-08 17-33-05-112 - Off.webp	14370-primal-earrings-of-aiming-front.webp
2024-03-08 17-33-11-912 - Off.webp	14371-primal-earrings-of-healing-front.webp
2024-03-08 17-34-00-395 - Off.webp	14554-prototype-midan-earrings-of-fending-front.webp
2024-03-08 17-35-09-579 - Off.webp	14693-dravanian-earrings-of-fending-front.webp
2024-03-08 17-35-43-696 - Off.webp	14811-the-twelves-earrings-of-fending-front.webp
2024-03-08 17-36-25-013 - Off.webp	15284-diamond-lone-wolf-earrings-front.webp
2024-03-08 17-36-31-814 - Off.webp	15288-platinum-lone-wolf-earrings-front.webp
2024-03-08 17-36-38-746 - Off.webp	15292-gold-lone-wolf-earrings-front.webp
2024-03-08 17-36-45-779 - Off.webp	15296-silver-lone-wolf-earrings-front.webp
2024-03-08 17-36-52-546 - Off.webp	15300-bronze-lone-wolf-earrings-front.webp
2024-03-08 17-36-59-396 - Off.webp	15402-berserkers-earrings-front.webp
2024-03-08 17-37-33-763 - Off.webp	15526-ironworks-earring-of-gathering-front.webp
2024-03-08 17-38-35-913 - Off.webp	15936-hatchling-earring-front.webp
2024-03-08 17-38-42-880 - Off.webp	16039-ala-mhigan-earrings-front.webp
2024-03-08 17-38-49-663 - Off.webp	16166-firecrest-earring-front.webp
2024-03-08 17-38-56-596 - Off.webp	16167-glass-pumpkin-earring-front.webp
2024-03-08 17-40-48-065 - Off.webp	16445-prototype-alexandrian-earrings-of-fending-front.webp
2024-03-08 17-41-57-014 - Off.webp	16683-scintillant-earring-of-fending-front.webp
2024-03-08 17-43-05-834 - Off.webp	17140-makai-earring-of-fending-front.webp
2024-03-08 17-44-15-231 - Off.webp	17428-filibusters-earring-of-fending-front.webp
2024-03-08 17-44-50-115 - Off.webp	17495-paissa-earring-front.webp
2024-03-08 17-44-56-965 - Off.webp	17503-proto-ultima-earrings-of-fending-front.webp
2024-03-08 17-45-31-448 - Off.webp	17663-lone-hellhound-earring-front.webp
2024-03-08 17-45-38-465 - Off.webp	17664-pack-hellhound-earring-front.webp
2024-03-08 17-45-45-531 - Off.webp	17671-lone-faehound-earring-front.webp
2024-03-08 17-45-52-448 - Off.webp	17672-pack-faehound-earring-front.webp
2024-03-08 17-46-33-865 - Off.webp	18169-ghost-barque-earrings-of-fending-front.webp
2024-03-08 17-47-08-299 - Off.webp	18247-koppranickel-earrings-of-fending-front.webp
2024-03-08 17-48-17-432 - Off.webp	18403-star-spinel-earrings-of-fending-front.webp
2024-03-08 17-49-27-066 - Off.webp	18559-azurite-earrings-of-fending-front.webp
2024-03-08 17-50-02-216 - Off.webp	18637-yanxian-earring-of-fending-front.webp
2024-03-08 17-51-11-251 - Off.webp	18793-xenobian-paladins-earrings-front.webp
2024-03-08 17-51-45-766 - Off.webp	18871-arhat-earring-of-fending-front.webp
2024-03-08 17-52-54-700 - Off.webp	19027-palladium-earring-of-fending-front.webp
2024-03-08 17-54-04-017 - Off.webp	19261-lost-allagan-earrings-of-fending-front.webp
2024-03-08 17-55-13-484 - Off.webp	19417-genji-earrings-of-fending-front.webp
2024-03-08 17-56-22-867 - Off.webp	19728-larch-earrings-front.webp
2024-03-08 17-56-29-701 - Off.webp	19733-gyuki-leather-earrings-front.webp
2024-03-08 17-56-36-751 - Off.webp	19738-persimmon-earrings-front.webp
2024-03-08 17-56-43-667 - Off.webp	19743-marid-leather-earrings-front.webp
2024-03-08 17-56-50-568 - Off.webp	19748-zelkova-earrings-front.webp
2024-03-08 17-56-57-485 - Off.webp	19753-gazelleskin-earrings-front.webp
2024-03-08 17-57-04-401 - Off.webp	19787-lakshmis-earrings-of-fending-front.webp
2024-03-08 17-57-39-185 - Off.webp	20861-skallic-earring-of-fending-front.webp
2024-03-08 17-58-13-451 - Off.webp	21033-emerald-carbuncle-earring-front.webp
2024-03-08 17-58-20-418 - Off.webp	21034-topaz-carbuncle-earring-front.webp
2024-03-08 17-58-27-301 - Off.webp	21306-scion-liberators-earrings-front.webp
2024-03-08 17-58-34-184 - Off.webp	21379-ryumyaku-earring-of-fending-front.webp
2024-03-08 17-59-43-568 - Off.webp	21551-diamond-earring-of-fending-front.webp
2024-03-08 18-02-02-552 - Off.webp	22353-eversharp-earring-front.webp
2024-03-08 18-02-57-936 - Off.webp	22973-cassie-earring-front.webp
2024-03-08 18-03-04-953 - Off.webp	22993-empyrean-earring-front.webp
2024-03-08 18-04-00-620 - Off.webp	23452-scaevan-ear-cuff-of-fending-front.webp
2024-03-08 18-05-10-104 - Off.webp	23624-omega-ear-cuff-of-fending-front.webp
2024-03-08 18-06-53-820 - Off.webp	23826-rakshasa-earring-of-fending-front.webp
2024-03-08 18-08-03-171 - Off.webp	24589-aetheryte-earring-front.webp
2024-03-08 18-08-10-087 - Off.webp	24612-namazu-earring-front.webp
2024-03-08 18-08-17-088 - Off.webp	24614-mameshiba-earring-front.webp
2024-03-08 18-08-58-971 - Off.webp	25448-ronkan-earrings-of-fending-front.webp
2024-03-08 18-09-33-987 - Off.webp	25528-deepshadow-earring-of-fending-front.webp
2024-03-08 18-10-43-187 - Off.webp	25688-hematite-earrings-of-fending-front.webp
2024-03-08 18-11-17-738 - Off.webp	25768-lakeland-earring-of-fending-front.webp
2024-03-08 18-11-52-688 - Off.webp	25848-diaspore-earrings-of-fending-front.webp
2024-03-08 18-12-27-338 - Off.webp	25928-voeburtite-earring-of-fending-front.webp
2024-03-08 18-13-02-272 - Off.webp	26008-white-ash-earring-of-fending-front.webp
2024-03-08 18-13-37-322 - Off.webp	26088-ravel-keepers-earring-of-fending-front.webp
2024-03-08 18-14-11-839 - Off.webp	26168-triplite-earrings-of-fending-front.webp
2024-03-08 18-14-46-072 - Off.webp	26248-nabaath-earrings-of-fending-front.webp
2024-03-08 18-15-19-940 - Off.webp	26328-petalite-earrings-of-fending-front.webp
2024-03-08 18-15-54-573 - Off.webp	26408-the-forgivens-earrings-of-fending-front.webp
2024-03-08 18-16-28-806 - Off.webp	26488-facet-earrings-of-fending-front.webp
2024-03-08 18-17-03-389 - Off.webp	26915-amaurotine-earrings-of-fending-front.webp
2024-03-08 18-17-38-090 - Off.webp	26995-edengrace-earring-of-fending-front.webp
2024-03-08 18-18-47-640 - Off.webp	27202-white-oak-earrings-front.webp
2024-03-08 18-18-54-423 - Off.webp	27207-smilodonskin-earrings-front.webp
2024-03-08 18-19-01-523 - Off.webp	27212-manasilver-ear-cuffs-front.webp
2024-03-08 18-19-08-640 - Off.webp	27217-white-ash-earrings-front.webp
2024-03-08 18-19-15-506 - Off.webp	27222-dwarven-mythril-ear-cuffs-front.webp
2024-03-08 18-19-22-107 - Off.webp	27227-lignum-vitae-earrings-front.webp
2024-03-08 18-19-29-123 - Off.webp	27614-immaculate-ear-cuffs-of-fending-front.webp
2024-03-08 18-21-27-157 - Off.webp	28493-whalaqee-earrings-front.webp
2024-03-08 18-21-34-040 - Off.webp	29097-edenchoir-earrings-of-fending-front.webp
2024-03-08 18-22-42-474 - Off.webp	29239-crystarium-earrings-of-fending-front.webp
2024-03-08 18-23-51-424 - Off.webp	29381-anamnesis-earrings-of-fending-front.webp
2024-03-08 18-24-26-025 - Off.webp	29464-neo-ishgardian-earring-of-fending-front.webp
2024-03-08 18-25-00-226 - Off.webp	30472-aesthetes-ear-cuffs-of-crafting-front.webp
2024-03-08 18-25-07-124 - Off.webp	30477-aesthetes-earrings-of-gathering-front.webp
2024-03-08 18-25-48-391 - Off.webp	30658-shadowless-earrings-of-fending-front.webp
2024-03-08 18-26-22-891 - Off.webp	31393-bozjan-earring-front.webp
2024-03-08 18-26-29-759 - Off.webp	31804-handsaints-earrings-front.webp
2024-03-08 18-26-43-658 - Off.webp	31873-exarchic-earrings-of-fending-front.webp
2024-03-08 18-27-17-708 - Off.webp	32336-edenmorn-earrings-of-fending-front.webp
2024-03-08 18-28-27-208 - Off.webp	32478-cryptlurkers-earring-of-fending-front.webp
2024-03-08 18-29-36-393 - Off.webp	32620-heirloom-earring-of-fending-front.webp
2024-03-08 18-30-10-576 - Off.webp	32640-mirage-earring-front.webp
2024-03-08 18-30-17-325 - Off.webp	33028-red-carnation-earring-front.webp
2024-03-08 18-30-24-277 - Off.webp	33029-blue-carnation-earring-front.webp
2024-03-08 18-30-31-309 - Off.webp	33030-yellow-carnation-earring-front.webp
2024-03-08 18-30-38-427 - Off.webp	33031-green-carnation-earring-front.webp
2024-03-08 18-30-45-293 - Off.webp	33032-orange-carnation-earring-front.webp
2024-03-08 18-30-52-210 - Off.webp	33033-purple-carnation-earring-front.webp
2024-03-08 18-30-59-126 - Off.webp	33034-white-carnation-earring-front.webp
2024-03-08 18-31-05-776 - Off.webp	33035-black-carnation-earring-front.webp
2024-03-08 18-31-12-643 - Off.webp	33036-rainbow-carnation-earring-front.webp
2024-03-08 18-31-54-026 - Off.webp	33542-paglthan-earring-of-fending-front.webp
2024-03-08 18-32-28-343 - Off.webp	33648-menphinas-earring-front.webp
2024-03-08 18-32-35-444 - Off.webp	33649-fat-cat-earrings-front.webp
2024-03-08 18-32-42-376 - Off.webp	33651-spriggan-earrings-front.webp
2024-03-08 18-32-49-260 - Off.webp	33874-red-moth-orchid-corsage-front.webp
2024-03-08 18-32-56-160 - Off.webp	33875-blue-moth-orchid-corsage-front.webp
2024-03-08 18-33-03-159 - Off.webp	33876-yellow-moth-orchid-corsage-front.webp
2024-03-08 18-33-10-026 - Off.webp	33877-green-moth-orchid-corsage-front.webp
2024-03-08 18-33-17-043 - Off.webp	33878-orange-moth-orchid-corsage-front.webp
2024-03-08 18-33-23-926 - Off.webp	33879-purple-moth-orchid-corsage-front.webp
2024-03-08 18-33-30-626 - Off.webp	33880-white-moth-orchid-corsage-front.webp
2024-03-08 18-33-37-510 - Off.webp	33881-black-moth-orchid-corsage-front.webp
2024-03-08 18-33-44-477 - Off.webp	33882-rainbow-moth-orchid-corsage-front.webp
2024-03-08 18-33-51-310 - Off.webp	34135-ametrine-earrings-of-fending-front.webp
2024-03-08 18-34-25-227 - Off.webp	34210-manusya-earrings-of-fending-front.webp
2024-03-08 18-34-59-493 - Off.webp	34285-palm-ear-cuffs-of-fending-front.webp
2024-03-08 18-35-33-861 - Off.webp	34360-imperial-earring-of-fending-front.webp
2024-03-08 18-36-08-127 - Off.webp	34435-phrygian-ear-cuffs-of-fending-front.webp
2024-03-08 18-36-42-977 - Off.webp	34510-palaka-earrings-of-fending-front.webp
2024-03-08 18-37-17-910 - Off.webp	34585-blue-zircon-earrings-of-fending-front.webp
2024-03-08 18-37-52-361 - Off.webp	34660-ktiseos-earring-of-fending-front.webp
2024-03-08 18-38-26-779 - Off.webp	34735-star-quartz-earrings-of-fending-front.webp
2024-03-08 18-39-01-945 - Off.webp	34810-etheirys-earring-of-fending-front.webp
2024-03-08 18-39-36-144 - Off.webp	34830-the-last-earring-of-fending-front.webp
2024-03-08 18-40-11-061 - Off.webp	34905-moonward-earring-of-fending-front.webp
2024-03-08 18-40-45-296 - Off.webp	34945-eternal-dark-earrings-of-fending-front.webp
2024-03-08 18-41-19-878 - Off.webp	35000-limbo-earrings-of-fending-front.webp
2024-03-08 18-41-54-712 - Off.webp	35075-classical-earrings-of-fending-front.webp
2024-03-08 18-42-29-078 - Off.webp	35150-radiants-earrings-of-fending-front.webp
2024-03-08 18-44-12-646 - Off.webp	35444-ametrine-ear-cuffs-of-crafting-front.webp
2024-03-08 18-44-19-563 - Off.webp	35448-horse-chestnut-earrings-of-gathering-front.webp
2024-03-08 18-44-26-412 - Off.webp	35452-ironwood-earrings-of-crafting-front.webp
2024-03-08 18-44-33-263 - Off.webp	35456-kumbhiraskin-earrings-of-gathering-front.webp
2024-03-08 18-44-40-179 - Off.webp	35460-integral-earrings-of-crafting-front.webp
2024-03-08 18-44-47-046 - Off.webp	35464-ophiotauroskin-earrings-of-gathering-front.webp
2024-03-08 18-44-53-947 - Off.webp	35991-red-triteleia-earring-front.webp
2024-03-08 18-45-00-679 - Off.webp	35992-blue-triteleia-earring-front.webp
2024-03-08 18-45-07-646 - Off.webp	35993-yellow-triteleia-earring-front.webp
2024-03-08 18-45-14-313 - Off.webp	35994-green-triteleia-earring-front.webp
2024-03-08 18-45-21-313 - Off.webp	35995-orange-triteleia-earring-front.webp
2024-03-08 18-45-28-230 - Off.webp	35996-purple-triteleia-earring-front.webp
2024-03-08 18-45-35-363 - Off.webp	35997-white-triteleia-earring-front.webp
2024-03-08 18-45-42-247 - Off.webp	35998-black-triteleia-earring-front.webp
2024-03-08 18-45-49-113 - Off.webp	35999-rainbow-triteleia-earring-front.webp
2024-03-08 18-45-55-896 - Off.webp	36338-omega-m-ear-cuffs-front.webp
2024-03-08 18-46-02-780 - Off.webp	36339-omega-f-earrings-front.webp
2024-03-08 18-46-44-630 - Off.webp	37081-wayfarers-earcuff-front.webp
2024-03-08 18-46-51-583 - Off.webp	37208-darbar-earrings-of-fending-front.webp
2024-03-08 18-47-25-913 - Off.webp	37797-rinascita-earring-of-fending-front.webp
2024-03-08 18-48-00-097 - Off.webp	37911-purgatory-earrings-of-fending-front.webp
2024-03-08 18-48-35-347 - Off.webp	37986-lunar-envoys-earring-of-fending-front.webp
2024-03-08 18-50-19-147 - Off.webp	38191-troian-earrings-of-fending-front.webp
2024-03-08 18-50-53-348 - Off.webp	38559-sildihn-earring-front.webp
2024-03-08 18-51-00-281 - Off.webp	38691-silkie-earring-front.webp
2024-03-08 18-51-07-297 - Off.webp	38921-indagators-earrings-of-crafting-front.webp
2024-03-08 18-51-14-298 - Off.webp	38925-indagators-earrings-of-gathering-front.webp
2024-03-08 18-51-21-198 - Off.webp	38992-manalis-earrings-of-fending-front.webp
2024-03-08 18-52-30-248 - Off.webp	39325-corgi-earring-front.webp
2024-03-08 18-52-37-131 - Off.webp	39327-loporrit-earrings-front.webp
2024-03-08 18-52-43-914 - Off.webp	39328-porxie-earrings-front.webp
2024-03-08 18-52-50-783 - Off.webp	39505-enaretos-earrings-front.webp
2024-03-08 18-52-57-714 - Off.webp	39685-diadochos-earring-of-fending-front.webp
2024-03-08 18-53-32-081 - Off.webp	39856-artful-afflatus-earrings-front.webp
2024-03-08 18-53-46-216 - Off.webp	39995-anabaseios-earring-of-fending-front.webp
2024-03-08 18-54-21-183 - Off.webp	40070-credendum-earrings-of-fending-front.webp
2024-03-08 18-56-04-749 - Off.webp	40275-distance-earring-of-fending-front.webp
2024-03-08 18-56-39-132 - Off.webp	40351-phantasmal-sardine-earring-front.webp
2024-03-08 18-56-46-099 - Off.webp	40800-voidmoon-ear-cuffs-of-fending-front.webp
2024-03-08 18-57-55-333 - Off.webp	41503-donut-earring-front.webp
2024-03-08 18-58-02-349 - Off.webp	41504-cookie-earring-front.webp
2024-03-08 18-58-09-334 - Off.webp	41505-buuz-earring-front.webp
2024-03-08 18-58-16-333 - Off.webp	41506-coffee-cup-earring-front.webp
2024-03-08 18-58-23-283 - Off.webp	41507-faux-commander-earring-front.webp