2024-03-11 16-23-11-992 - Off.webp	01540-dated-copper-choker.webp
2024-03-11 16-23-29-376 - Off.webp	01542-dated-silver-choker.webp
2024-03-11 16-23-31-925 - Off.webp	01543-dated-sunstone-choker.webp
2024-03-11 16-23-34-575 - Off.webp	01544-dated-lapis-lazuli-choker.webp
2024-03-11 16-23-36-925 - Off.webp	01545-dated-sphene-choker.webp
2024-03-11 16-23-39-625 - Off.webp	01546-dated-malachite-choker.webp
2024-03-11 16-23-42-392 - Off.webp	01547-dated-fluorite-choker.webp
2024-03-11 16-23-44-925 - Off.webp	01548-dated-danburite-choker.webp
2024-03-11 16-23-50-209 - Off.webp	01550-dated-garnet-choker.webp
2024-03-11 16-23-52-675 - Off.webp	01551-dated-aquamarine-choker.webp
2024-03-11 16-23-55-192 - Off.webp	01552-dated-heliodor-choker.webp
2024-03-11 16-23-57-809 - Off.webp	01553-dated-peridot-choker.webp
2024-03-11 16-24-00-225 - Off.webp	01554-dated-amethyst-choker.webp
2024-03-11 16-24-02-809 - Off.webp	01555-dated-goshenite-choker.webp
2024-03-11 16-24-08-125 - Off.webp	04301-paramours-pendant.webp
2024-03-11 16-24-10-692 - Off.webp	04302-platinum-paramours-pendant.webp
2024-03-11 16-24-13-292 - Off.webp	04303-band-of-eternal-passion.webp
2024-03-11 16-24-15-742 - Off.webp	04304-leather-choker.webp
2024-03-11 16-24-21-042 - Off.webp	04306-bone-necklace.webp
2024-03-11 16-24-26-211 - Off.webp	04308-hard-leather-choker.webp
2024-03-11 16-24-41-609 - Off.webp	04314-goatskin-choker.webp
2024-03-11 16-24-49-276 - Off.webp	04317-horn-necklace.webp
2024-03-11 16-26-13-594 - Off.webp	04351-pearl-choker.webp
2024-03-11 16-26-26-643 - Off.webp	04356-flame-sergeants-choker.webp
2024-03-11 16-26-44-459 - Off.webp	04363-red-coral-necklace.webp
2024-03-11 16-27-19-776 - Off.webp	04377-black-pearl-choker.webp
2024-03-11 16-27-27-560 - Off.webp	04380-militia-choker.webp
2024-03-11 16-27-50-743 - Off.webp	04389-astral-choker.webp
2024-03-11 16-27-55-876 - Off.webp	04391-allagan-choker-of-striking.webp
2024-03-11 16-27-58-543 - Off.webp	04392-allagan-choker-of-aiming.webp
2024-03-11 16-28-06-210 - Off.webp	04395-allagan-choker-of-maiming.webp
2024-03-11 16-28-11-011 - Off.webp	04400-ultima-choker-of-fending.webp
2024-03-11 16-28-24-160 - Off.webp	06114-mandragora-choker.webp
2024-03-11 16-28-26-559 - Off.webp	06115-ahriman-choker.webp
2024-03-11 16-29-36-826 - Off.webp	07170-high-allagan-choker-of-fending.webp
2024-03-11 16-29-41-776 - Off.webp	07196-high-allagan-choker-of-aiming.webp
2024-03-11 16-29-46-960 - Off.webp	07216-high-allagan-choker-of-casting.webp
2024-03-11 16-30-28-710 - Off.webp	07516-ribbon-of-fending.webp
2024-03-11 16-31-40-079 - Off.webp	08951-dreadwyrm-choker-of-fending.webp
2024-03-11 16-31-52-777 - Off.webp	09034-platinum-scarf-of-fending.webp
2024-03-11 16-31-55-428 - Off.webp	09050-platinum-scarf-of-slaying.webp
2024-03-11 16-31-58-027 - Off.webp	09060-platinum-scarf-of-aiming.webp
2024-03-11 16-32-00-577 - Off.webp	09070-platinum-scarf-of-healing.webp
2024-03-11 16-32-03-128 - Off.webp	09080-platinum-scarf-of-casting.webp
2024-03-11 16-32-18-578 - Off.webp	09292-the-emperors-new-necklace.webp
2024-03-11 16-32-21-261 - Off.webp	09985-varlets-necklace.webp
2024-03-11 16-32-33-978 - Off.webp	10066-peach-blossom-choker.webp
2024-03-11 16-32-36-528 - Off.webp	10964-rainbow-ribbon-of-fending.webp
2024-03-11 16-32-38-961 - Off.webp	10965-mythrite-necklace-of-fending.webp
2024-03-11 16-32-41-595 - Off.webp	10966-ramie-ribbon-of-fending.webp
2024-03-11 16-32-44-261 - Off.webp	10967-opal-choker-of-fending.webp
2024-03-11 16-32-46-744 - Off.webp	10968-aurum-regis-necklace-of-fending.webp
2024-03-11 16-32-49-344 - Off.webp	10969-citrine-choker-of-fending.webp
2024-03-11 16-33-54-228 - Off.webp	11495-prototype-gordian-neckband-of-fending.webp
2024-03-11 16-34-19-644 - Off.webp	11647-yasha-necklace-of-fending.webp
2024-03-11 16-34-45-494 - Off.webp	11750-ardent-necklace-of-fending.webp
2024-03-11 16-35-10-961 - Off.webp	12011-holy-cedar-necklace.webp
2024-03-11 16-35-13-444 - Off.webp	12012-hallowed-chestnut-necklace.webp
2024-03-11 16-35-16-095 - Off.webp	12013-astral-birch-necklace.webp
2024-03-11 16-35-18-678 - Off.webp	12023-wyvernskin-choker.webp
2024-03-11 16-35-21-394 - Off.webp	12024-dragonskin-choker.webp
2024-03-11 16-35-23-977 - Off.webp	12025-griffin-leather-choker.webp
2024-03-11 16-35-26-461 - Off.webp	12336-battleliege-choker-of-fending.webp
2024-03-11 16-35-39-328 - Off.webp	12356-ishgardian-knights-choker.webp
2024-03-11 16-36-05-077 - Off.webp	12396-orthodox-choker-of-fending.webp
2024-03-11 16-36-56-728 - Off.webp	13203-choker-of-the-defiant-duelist.webp
2024-03-11 16-37-09-528 - Off.webp	13301-camphorwood-necklace-of-fending.webp
2024-03-11 16-38-06-528 - Off.webp	14373-primal-choker-of-fending.webp
2024-03-11 16-38-09-163 - Off.webp	14374-primal-choker-of-slaying.webp
2024-03-11 16-38-11-628 - Off.webp	14375-primal-choker-of-aiming.webp
2024-03-11 16-38-14-095 - Off.webp	14376-primal-choker-of-healing.webp
2024-03-11 16-38-32-011 - Off.webp	14559-prototype-midan-neckband-of-fending.webp
2024-03-11 16-38-57-545 - Off.webp	14692-dravanian-choker-of-fending.webp
2024-03-11 16-39-09-928 - Off.webp	14810-the-twelves-necklace-of-fending.webp
2024-03-11 16-39-25-178 - Off.webp	15283-diamond-lone-wolf-choker.webp
2024-03-11 16-39-27-711 - Off.webp	15287-platinum-lone-wolf-choker.webp
2024-03-11 16-39-30-129 - Off.webp	15291-gold-lone-wolf-choker.webp
2024-03-11 16-39-32-745 - Off.webp	15295-silver-lone-wolf-choker.webp
2024-03-11 16-39-35-295 - Off.webp	15299-bronze-lone-wolf-choker.webp
2024-03-11 16-39-37-862 - Off.webp	15401-berserkers-scarf.webp
2024-03-11 16-39-50-695 - Off.webp	15525-ironworks-necklace-of-gathering.webp
2024-03-11 16-40-52-628 - Off.webp	16450-prototype-alexandrian-neckband-of-fending.webp
2024-03-11 16-41-18-479 - Off.webp	16688-teak-choker-of-fending.webp
2024-03-11 16-41-44-029 - Off.webp	17138-makai-choker-of-fending.webp
2024-03-11 16-42-09-579 - Off.webp	17427-filibusters-choker-of-fending.webp
2024-03-11 16-42-22-495 - Off.webp	17501-proto-ultima-necklace-of-fending.webp
2024-03-11 16-42-35-179 - Off.webp	17679-redbill-scarf.webp
2024-03-11 16-42-50-579 - Off.webp	18174-ghost-barque-choker-of-fending.webp
2024-03-11 16-43-03-729 - Off.webp	18252-koppranickel-necklace-of-fending.webp
2024-03-11 16-43-29-430 - Off.webp	18408-star-spinel-choker-of-fending.webp
2024-03-11 16-43-54-646 - Off.webp	18564-azurite-choker-of-fending.webp
2024-03-11 16-44-07-479 - Off.webp	18642-yanxian-necklace-of-fending.webp
2024-03-11 16-44-33-546 - Off.webp	18798-xenobian-paladins-choker.webp
2024-03-11 16-44-46-646 - Off.webp	18876-arhat-necklace-of-fending.webp
2024-03-11 16-45-12-796 - Off.webp	19032-torreya-choker-of-fending.webp
2024-03-11 16-45-39-062 - Off.webp	19266-lost-allagan-choker-of-fending.webp
2024-03-11 16-46-04-746 - Off.webp	19422-genji-necklace-of-fending.webp
2024-03-11 16-46-30-413 - Off.webp	19729-larch-necklace.webp
2024-03-11 16-46-33-113 - Off.webp	19734-gyuki-leather-choker.webp
2024-03-11 16-46-35-880 - Off.webp	19739-persimmon-necklace.webp
2024-03-11 16-46-38-313 - Off.webp	19744-marid-leather-choker.webp
2024-03-11 16-46-40-796 - Off.webp	19749-zelkova-necklace.webp
2024-03-11 16-46-43-130 - Off.webp	19754-gazelleskin-choker.webp
2024-03-11 16-46-45-698 - Off.webp	19792-lakshmis-necklace-of-fending.webp
2024-03-11 16-46-58-430 - Off.webp	20516-firecrest-choker.webp
2024-03-11 16-47-01-013 - Off.webp	20519-glass-pumpkin-choker.webp
2024-03-11 16-47-03-430 - Off.webp	20866-skallic-necklace-of-fending.webp
2024-03-11 16-47-16-380 - Off.webp	21384-ryumyaku-necklace-of-fending.webp
2024-03-11 16-47-41-630 - Off.webp	21556-diamond-necklace-of-fending.webp
2024-03-11 16-48-32-780 - Off.webp	22354-eversharp-choker.webp
2024-03-11 16-48-53-514 - Off.webp	22994-empyrean-necklace.webp
2024-03-11 16-49-14-047 - Off.webp	23360-namazu-bell.webp
2024-03-11 16-49-16-630 - Off.webp	23457-scaevan-choker-of-fending.webp
2024-03-11 16-49-42-147 - Off.webp	23629-omega-choker-of-fending.webp
2024-03-11 16-50-21-081 - Off.webp	23831-rakshasa-necklace-of-fending.webp
2024-03-11 16-50-46-432 - Off.webp	24613-namazu-neckerchief.webp
2024-03-11 16-50-49-031 - Off.webp	24615-mameshiba-neckerchief.webp
2024-03-11 16-51-04-297 - Off.webp	25453-ronkan-necklace-of-fending.webp
2024-03-11 16-51-17-030 - Off.webp	25533-deepshadow-necklace-of-fending.webp
2024-03-11 16-51-42-580 - Off.webp	25693-hematite-choker-of-fending.webp
2024-03-11 16-51-55-547 - Off.webp	25773-lakeland-necklace-of-fending.webp
2024-03-11 16-52-08-447 - Off.webp	25853-diaspore-choker-of-fending.webp
2024-03-11 16-52-21-532 - Off.webp	25933-voeburtite-necklace-of-fending.webp
2024-03-11 16-52-34-231 - Off.webp	26013-atrociraptorskin-necklace-of-fending.webp
2024-03-11 16-52-47-265 - Off.webp	26093-ravel-keepers-choker-of-fending.webp
2024-03-11 16-53-00-032 - Off.webp	26173-triplite-choker-of-fending.webp
2024-03-11 16-53-12-898 - Off.webp	26253-nabaath-choker-of-fending.webp
2024-03-11 16-53-25-865 - Off.webp	26333-petalite-choker-of-fending.webp
2024-03-11 16-53-38-698 - Off.webp	26413-the-forgivens-necklace-of-fending.webp
2024-03-11 16-53-51-398 - Off.webp	26493-facet-choker-of-fending.webp
2024-03-11 16-54-04-082 - Off.webp	26920-amaurotine-choker-of-fending.webp
2024-03-11 16-54-17-098 - Off.webp	27000-edengrace-choker-of-fending.webp
2024-03-11 16-54-43-082 - Off.webp	27203-white-oak-necklace.webp
2024-03-11 16-54-45-781 - Off.webp	27208-smilodonskin-choker.webp
2024-03-11 16-54-48-115 - Off.webp	27213-manasilver-choker.webp
2024-03-11 16-54-50-781 - Off.webp	27218-white-ash-necklace.webp
2024-03-11 16-54-53-349 - Off.webp	27223-dwarven-mythril-choker.webp
2024-03-11 16-54-55-781 - Off.webp	27228-lignum-vitae-necklace.webp
2024-03-11 16-54-58-398 - Off.webp	27619-immaculate-necklace-of-fending.webp
2024-03-11 16-55-36-515 - Off.webp	28494-whalaqee-choker.webp
2024-03-11 16-55-38-998 - Off.webp	29102-edenchoir-choker-of-fending.webp
2024-03-11 16-56-04-848 - Off.webp	29244-crystarium-choker-of-fending.webp
2024-03-11 16-56-30-233 - Off.webp	29386-anamnesis-choker-of-fending.webp
2024-03-11 16-56-42-932 - Off.webp	29469-neo-ishgardian-choker-of-fending.webp
2024-03-11 16-56-55-915 - Off.webp	30473-aesthetes-choker-of-crafting.webp
2024-03-11 16-56-58-515 - Off.webp	30478-aesthetes-necklace-of-gathering.webp
2024-03-11 16-57-14-115 - Off.webp	30663-shadowless-necklace-of-fending.webp
2024-03-11 16-57-26-882 - Off.webp	31419-cait-sith-neck-ribbon.webp
2024-03-11 16-57-29-515 - Off.webp	31805-handsaints-necklace.webp
2024-03-11 16-57-34-799 - Off.webp	31878-exarchic-choker-of-fending.webp
2024-03-11 16-57-47-949 - Off.webp	32341-edenmorn-necklace-of-fending.webp
2024-03-11 16-58-13-698 - Off.webp	32483-cryptlurkers-choker-of-fending.webp
2024-03-11 16-58-38-949 - Off.webp	32625-heirloom-necklace-of-fending.webp
2024-03-11 16-58-51-565 - Off.webp	32641-mirage-choker.webp
2024-03-11 16-59-07-332 - Off.webp	33547-paglthan-necklace-of-fending.webp
2024-03-11 16-59-20-349 - Off.webp	34140-ametrine-choker-of-fending.webp
2024-03-11 16-59-33-249 - Off.webp	34215-manusya-choker-of-fending.webp
2024-03-11 16-59-46-049 - Off.webp	34290-pewter-choker-of-fending.webp
2024-03-11 16-59-58-832 - Off.webp	34365-imperial-choker-of-fending.webp
2024-03-11 17-00-11-700 - Off.webp	34440-phrygian-choker-of-fending.webp
2024-03-11 17-00-24-499 - Off.webp	34515-palaka-choker-of-fending.webp
2024-03-11 17-00-37-499 - Off.webp	34590-ironwood-choker-of-fending.webp
2024-03-11 17-00-50-083 - Off.webp	34665-ktiseos-choker-of-fending.webp
2024-03-11 17-01-03-049 - Off.webp	34740-star-quartz-choker-of-fending.webp
2024-03-11 17-01-15-882 - Off.webp	34815-etheirys-choker-of-fending.webp
2024-03-11 17-01-28-501 - Off.webp	34835-the-last-necklace-of-fending.webp
2024-03-11 17-01-41-533 - Off.webp	34910-moonward-necklace-of-fending.webp
2024-03-11 17-01-54-049 - Off.webp	34950-eternal-dark-necklace-of-fending.webp
2024-03-11 17-02-06-983 - Off.webp	35005-limbo-necklace-of-fending.webp
2024-03-11 17-02-19-949 - Off.webp	35080-classical-choker-of-fending.webp
2024-03-11 17-02-32-799 - Off.webp	35155-radiants-choker-of-fending.webp
2024-03-11 17-03-10-967 - Off.webp	35445-ametrine-necklace-of-crafting.webp
2024-03-11 17-03-13-434 - Off.webp	35449-horse-chestnut-necklace-of-gathering.webp
2024-03-11 17-03-15-950 - Off.webp	35453-ironwood-necklace-of-crafting.webp
2024-03-11 17-03-18-683 - Off.webp	35457-kumbhiraskin-necklace-of-gathering.webp
2024-03-11 17-03-21-149 - Off.webp	35461-integral-necklace-of-crafting.webp
2024-03-11 17-03-23-784 - Off.webp	35465-ophiotauroskin-necklace-of-gathering.webp
2024-03-11 17-03-39-049 - Off.webp	37082-wayfarers-necklace.webp
2024-03-11 17-03-41-700 - Off.webp	37213-darbar-necklace-of-fending.webp
2024-03-11 17-03-54-516 - Off.webp	37293-red-byregotia-choker.webp
2024-03-11 17-03-57-099 - Off.webp	37294-blue-byregotia-choker.webp
2024-03-11 17-03-59-833 - Off.webp	37295-yellow-byregotia-choker.webp
2024-03-11 17-04-02-485 - Off.webp	37296-green-byregotia-choker.webp
2024-03-11 17-04-05-016 - Off.webp	37297-orange-byregotia-choker.webp
2024-03-11 17-04-07-567 - Off.webp	37298-purple-byregotia-choker.webp
2024-03-11 17-04-10-217 - Off.webp	37299-white-byregotia-choker.webp
2024-03-11 17-04-12-533 - Off.webp	37300-black-byregotia-choker.webp
2024-03-11 17-04-15-016 - Off.webp	37301-rainbow-byregotia-choker.webp
2024-03-11 17-04-17-666 - Off.webp	37802-rinascita-necklace-of-fending.webp
2024-03-11 17-04-30-783 - Off.webp	37916-purgatory-choker-of-fending.webp
2024-03-11 17-04-43-666 - Off.webp	37991-lunar-envoys-necklace-of-fending.webp
2024-03-11 17-05-22-050 - Off.webp	38196-troian-choker-of-fending.webp
2024-03-11 17-05-34-700 - Off.webp	38560-red-sweet-pea-necklace.webp
2024-03-11 17-05-37-150 - Off.webp	38561-blue-sweet-pea-necklace.webp
2024-03-11 17-05-39-650 - Off.webp	38562-yellow-sweet-pea-necklace.webp
2024-03-11 17-05-42-250 - Off.webp	38563-green-sweet-pea-necklace.webp
2024-03-11 17-05-44-816 - Off.webp	38564-orange-sweet-pea-necklace.webp
2024-03-11 17-05-47-400 - Off.webp	38565-purple-sweet-pea-necklace.webp
2024-03-11 17-05-49-983 - Off.webp	38566-white-sweet-pea-necklace.webp
2024-03-11 17-05-52-517 - Off.webp	38567-black-sweet-pea-necklace.webp
2024-03-11 17-05-55-000 - Off.webp	38568-rainbow-sweet-pea-necklace.webp
2024-03-11 17-05-57-700 - Off.webp	38922-indagators-necklace-of-crafting.webp
2024-03-11 17-06-00-183 - Off.webp	38926-indagators-necklace-of-gathering.webp
2024-03-11 17-06-02-784 - Off.webp	38997-manalis-choker-of-fending.webp
2024-03-11 17-06-28-133 - Off.webp	39326-corgi-scarf.webp
2024-03-11 17-06-30-633 - Off.webp	39506-enaretos-necklace.webp
2024-03-11 17-06-33-150 - Off.webp	39690-diadochos-choker-of-fending.webp
2024-03-11 17-06-46-134 - Off.webp	39857-artful-afflatus-necklace.webp
2024-03-11 17-06-51-317 - Off.webp	40000-anabaseios-necklace-of-fending.webp
2024-03-11 17-07-03-900 - Off.webp	40075-credendum-necklace-of-fending.webp
2024-03-11 17-07-42-450 - Off.webp	40280-distance-choker-of-fending.webp
2024-03-11 17-07-55-500 - Off.webp	40352-phantasmal-sardine-necklace.webp
2024-03-11 17-07-58-017 - Off.webp	40805-voidmoon-necklace-of-fending.webp
2024-03-11 17-08-23-817 - Off.webp	41508-faux-commander-necklace.webp