2024-03-07 22-21-19-852 - Off.webp
2024-03-07 22-22-36-603 - Off.webp
2024-03-07 22-22-41-220 - Off.webp
2024-03-07 22-22-43-586 - Off.webp
2024-03-07 22-22-45-953 - Off.webp
2024-03-07 22-22-48-220 - Off.webp
2024-03-07 22-22-50-552 - Off.webp
2024-03-07 22-22-53-069 - Off.webp
2024-03-07 22-22-55-386 - Off.webp
2024-03-07 22-22-57-704 - Off.webp
2024-03-07 22-23-00-037 - Off.webp
2024-03-07 22-23-04-803 - Off.webp
2024-03-07 22-23-07-220 - Off.webp
2024-03-07 22-23-09-586 - Off.webp
2024-03-07 22-23-12-003 - Off.webp
2024-03-07 22-23-14-353 - Off.webp
2024-03-07 22-23-16-453 - Off.webp
2024-03-07 22-23-18-753 - Off.webp
2024-03-07 22-23-27-936 - Off.webp
2024-03-07 22-23-30-203 - Off.webp
2024-03-07 22-23-32-453 - Off.webp
2024-03-07 22-23-34-869 - Off.webp
2024-03-07 22-23-37-203 - Off.webp
2024-03-07 22-23-46-353 - Off.webp
2024-03-07 22-23-48-719 - Off.webp
2024-03-07 22-25-22-937 - Off.webp
2024-03-07 22-25-32-403 - Off.webp
2024-03-07 22-25-39-337 - Off.webp
2024-03-07 22-26-19-054 - Off.webp
2024-03-07 22-26-21-288 - Off.webp
2024-03-07 22-26-23-587 - Off.webp
2024-03-07 22-26-41-770 - Off.webp
2024-03-07 22-26-48-820 - Off.webp
2024-03-07 22-26-51-054 - Off.webp
2024-03-07 22-26-53-287 - Off.webp
2024-03-07 22-26-55-687 - Off.webp
2024-03-07 22-27-02-687 - Off.webp
2024-03-07 22-27-16-637 - Off.webp
2024-03-07 22-28-18-654 - Off.webp
2024-03-07 22-28-23-305 - Off.webp
2024-03-07 22-28-28-037 - Off.webp
2024-03-07 22-29-35-438 - Off.webp
2024-03-07 22-29-37-637 - Off.webp
2024-03-07 22-29-51-389 - Off.webp
2024-03-07 22-30-05-204 - Off.webp
2024-03-07 22-30-16-756 - Off.webp
2024-03-07 22-30-19-121 - Off.webp
2024-03-07 22-30-21-588 - Off.webp
2024-03-07 22-30-24-055 - Off.webp
2024-03-07 22-30-26-422 - Off.webp
2024-03-07 22-30-40-471 - Off.webp
2024-03-07 22-30-42-938 - Off.webp
2024-03-07 22-30-45-155 - Off.webp
2024-03-07 22-30-47-488 - Off.webp
2024-03-07 22-30-59-039 - Off.webp
2024-03-07 22-31-01-338 - Off.webp
2024-03-07 22-31-03-805 - Off.webp
2024-03-07 22-31-06-154 - Off.webp
2024-03-07 22-31-08-522 - Off.webp
2024-03-07 22-31-10-721 - Off.webp
2024-03-07 22-31-13-021 - Off.webp
2024-03-07 22-31-15-205 - Off.webp
2024-03-07 22-31-17-538 - Off.webp
2024-03-07 22-31-19-871 - Off.webp
2024-03-07 22-31-22-238 - Off.webp
2024-03-07 22-32-20-372 - Off.webp
2024-03-07 22-32-43-122 - Off.webp
2024-03-07 22-33-05-672 - Off.webp
2024-03-07 22-33-28-988 - Off.webp
2024-03-07 22-33-31-339 - Off.webp
2024-03-07 22-33-33-622 - Off.webp
2024-03-07 22-33-35-906 - Off.webp
2024-03-07 22-33-38-272 - Off.webp
2024-03-07 22-33-40-638 - Off.webp
2024-03-07 22-33-42-955 - Off.webp
2024-03-07 22-33-54-588 - Off.webp
2024-03-07 22-34-17-755 - Off.webp
2024-03-07 22-35-04-705 - Off.webp
2024-03-07 22-35-06-839 - Off.webp
2024-03-07 22-35-09-272 - Off.webp
2024-03-07 22-35-20-806 - Off.webp
2024-03-07 22-35-23-089 - Off.webp
2024-03-07 22-35-34-789 - Off.webp
2024-03-07 22-36-11-989 - Off.webp
2024-03-07 22-36-18-939 - Off.webp
2024-03-07 22-36-21-323 - Off.webp
2024-03-07 22-36-23-556 - Off.webp
2024-03-07 22-36-25-789 - Off.webp
2024-03-07 22-36-41-939 - Off.webp
2024-03-07 22-37-05-306 - Off.webp
2024-03-07 22-37-17-023 - Off.webp
2024-03-07 22-37-31-389 - Off.webp
2024-03-07 22-37-33-623 - Off.webp
2024-03-07 22-37-35-956 - Off.webp
2024-03-07 22-37-38-323 - Off.webp
2024-03-07 22-37-40-839 - Off.webp
2024-03-07 22-37-43-039 - Off.webp
2024-03-07 22-37-54-856 - Off.webp
2024-03-07 22-38-15-706 - Off.webp
2024-03-07 22-38-18-156 - Off.webp
2024-03-07 22-38-20-540 - Off.webp
2024-03-07 22-38-22-923 - Off.webp
2024-03-07 22-39-00-008 - Off.webp
2024-03-07 22-39-23-057 - Off.webp
2024-03-07 22-39-46-140 - Off.webp
2024-03-07 22-40-09-874 - Off.webp
2024-03-07 22-40-21-590 - Off.webp
2024-03-07 22-40-23-890 - Off.webp
2024-03-07 22-40-35-423 - Off.webp
2024-03-07 22-40-37-707 - Off.webp
2024-03-07 22-40-40-174 - Off.webp
2024-03-07 22-40-42-573 - Off.webp
2024-03-07 22-40-56-274 - Off.webp
2024-03-07 22-41-07-640 - Off.webp
2024-03-07 22-41-31-174 - Off.webp
2024-03-07 22-41-54-424 - Off.webp
2024-03-07 22-42-05-824 - Off.webp
2024-03-07 22-42-28-791 - Off.webp
2024-03-07 22-42-40-390 - Off.webp
2024-03-07 22-43-03-375 - Off.webp
2024-03-07 22-43-26-674 - Off.webp
2024-03-07 22-43-49-758 - Off.webp
2024-03-07 22-44-12-824 - Off.webp
2024-03-07 22-44-15-158 - Off.webp
2024-03-07 22-44-17-408 - Off.webp
2024-03-07 22-44-19-758 - Off.webp
2024-03-07 22-44-21-991 - Off.webp
2024-03-07 22-44-24-325 - Off.webp
2024-03-07 22-44-26-692 - Off.webp
2024-03-07 22-44-38-475 - Off.webp
2024-03-07 22-44-50-274 - Off.webp
2024-03-07 22-44-52-726 - Off.webp
2024-03-07 22-44-54-924 - Off.webp
2024-03-07 22-44-57-358 - Off.webp
2024-03-07 22-45-20-160 - Off.webp
2024-03-07 22-46-06-041 - Off.webp
2024-03-07 22-46-24-542 - Off.webp
2024-03-07 22-46-26-875 - Off.webp
2024-03-07 22-46-45-409 - Off.webp
2024-03-07 22-47-08-375 - Off.webp
2024-03-07 22-47-43-375 - Off.webp
2024-03-07 22-48-06-259 - Off.webp
2024-03-07 22-48-08-709 - Off.webp
2024-03-07 22-48-10-842 - Off.webp
2024-03-07 22-48-24-542 - Off.webp
2024-03-07 22-48-35-975 - Off.webp
2024-03-07 22-48-59-309 - Off.webp
2024-03-07 22-49-10-909 - Off.webp
2024-03-07 22-49-22-243 - Off.webp
2024-03-07 22-49-33-776 - Off.webp
2024-03-07 22-49-45-293 - Off.webp
2024-03-07 22-49-56-943 - Off.webp
2024-03-07 22-50-08-343 - Off.webp
2024-03-07 22-50-19-843 - Off.webp
2024-03-07 22-50-31-393 - Off.webp
2024-03-07 22-50-43-126 - Off.webp
2024-03-07 22-50-55-126 - Off.webp
2024-03-07 22-51-06-976 - Off.webp
2024-03-07 22-51-18-860 - Off.webp
2024-03-07 22-51-42-443 - Off.webp
2024-03-07 22-51-44-743 - Off.webp
2024-03-07 22-51-46-977 - Off.webp
2024-03-07 22-51-49-260 - Off.webp
2024-03-07 22-51-51-543 - Off.webp
2024-03-07 22-51-53-876 - Off.webp
2024-03-07 22-51-56-093 - Off.webp
2024-03-07 22-52-35-227 - Off.webp
2024-03-07 22-52-37-543 - Off.webp
2024-03-07 22-53-00-860 - Off.webp
2024-03-07 22-53-23-894 - Off.webp
2024-03-07 22-53-35-561 - Off.webp
2024-03-07 22-53-46-910 - Off.webp
2024-03-07 22-53-49-127 - Off.webp
2024-03-07 22-54-03-410 - Off.webp
2024-03-07 22-54-15-094 - Off.webp
2024-03-07 22-54-17-510 - Off.webp
2024-03-07 22-54-22-144 - Off.webp
2024-03-07 22-54-33-794 - Off.webp
2024-03-07 22-54-57-560 - Off.webp
2024-03-07 22-55-20-644 - Off.webp
2024-03-07 22-55-32-278 - Off.webp
2024-03-07 22-55-34-694 - Off.webp
2024-03-07 22-55-36-911 - Off.webp
2024-03-07 22-55-39-294 - Off.webp
2024-03-07 22-55-41-510 - Off.webp
2024-03-07 22-55-43-794 - Off.webp
2024-03-07 22-55-46-128 - Off.webp
2024-03-07 22-55-48-594 - Off.webp
2024-03-07 22-55-50-861 - Off.webp
2024-03-07 22-55-53-295 - Off.webp
2024-03-07 22-56-07-345 - Off.webp
2024-03-07 22-56-18-761 - Off.webp
2024-03-07 22-56-21-061 - Off.webp
2024-03-07 22-56-23-227 - Off.webp
2024-03-07 22-56-25-494 - Off.webp
2024-03-07 22-56-27-844 - Off.webp
2024-03-07 22-56-30-127 - Off.webp
2024-03-07 22-56-32-394 - Off.webp
2024-03-07 22-56-34-729 - Off.webp
2024-03-07 22-56-36-978 - Off.webp
2024-03-07 22-56-39-361 - Off.webp
2024-03-07 22-56-41-778 - Off.webp
2024-03-07 22-56-44-078 - Off.webp
2024-03-07 22-56-46-544 - Off.webp
2024-03-07 22-56-58-178 - Off.webp
2024-03-07 22-57-09-828 - Off.webp
2024-03-07 22-57-21-278 - Off.webp
2024-03-07 22-57-32-844 - Off.webp
2024-03-07 22-57-44-377 - Off.webp
2024-03-07 22-57-56-029 - Off.webp
2024-03-07 22-58-07-978 - Off.webp
2024-03-07 22-58-19-894 - Off.webp
2024-03-07 22-58-31-594 - Off.webp
2024-03-07 22-58-43-062 - Off.webp
2024-03-07 22-58-54-978 - Off.webp
2024-03-07 22-59-06-961 - Off.webp
2024-03-07 22-59-18-478 - Off.webp
2024-03-07 22-59-30-178 - Off.webp
2024-03-07 22-59-41-978 - Off.webp
2024-03-07 23-00-16-645 - Off.webp
2024-03-07 23-00-19-028 - Off.webp
2024-03-07 23-00-21-478 - Off.webp
2024-03-07 23-00-23-812 - Off.webp
2024-03-07 23-00-26-212 - Off.webp
2024-03-07 23-00-28-512 - Off.webp
2024-03-07 23-00-30-812 - Off.webp
2024-03-07 23-00-33-079 - Off.webp
2024-03-07 23-00-35-345 - Off.webp
2024-03-07 23-00-37-645 - Off.webp
2024-03-07 23-00-39-995 - Off.webp
2024-03-07 23-00-42-263 - Off.webp
2024-03-07 23-00-44-645 - Off.webp
2024-03-07 23-00-46-845 - Off.webp
2024-03-07 23-00-49-078 - Off.webp
2024-03-07 23-00-51-312 - Off.webp
2024-03-07 23-00-53-679 - Off.webp
2024-03-07 23-01-07-562 - Off.webp
2024-03-07 23-01-09-928 - Off.webp
2024-03-07 23-01-21-347 - Off.webp
2024-03-07 23-01-32-929 - Off.webp
2024-03-07 23-01-44-613 - Off.webp
2024-03-07 23-02-19-379 - Off.webp
2024-03-07 23-02-31-029 - Off.webp
2024-03-07 23-02-33-395 - Off.webp
2024-03-07 23-02-35-663 - Off.webp
2024-03-07 23-02-37-913 - Off.webp
2024-03-07 23-02-40-281 - Off.webp
2024-03-07 23-03-03-196 - Off.webp
2024-03-07 23-03-05-581 - Off.webp
2024-03-07 23-03-07-846 - Off.webp
2024-03-07 23-03-09-979 - Off.webp
2024-03-07 23-03-12-380 - Off.webp
2024-03-07 23-03-24-163 - Off.webp
2024-03-07 23-03-28-896 - Off.webp
2024-03-07 23-03-40-447 - Off.webp
2024-03-07 23-04-15-529 - Off.webp
2024-03-07 23-04-27-179 - Off.webp
2024-03-07 23-04-29-380 - Off.webp
2024-03-07 23-04-52-246 - Off.webp
2024-03-07 23-04-54-563 - Off.webp
2024-03-07 23-04-56-832 - Off.webp
2024-03-07 23-04-59-246 - Off.webp
2024-03-07 23-05-01-313 - Off.webp
